{ "lista":[
    {
      "id": 1,
      "name": "Sopa"
    },
    {
      "id": 2,
      "name": "Chatarra"
    },
    {
      "id": 3,
      "name": "Postre"
    },
    {
      "id": 4,
      "name": "Segundo"
    }
  ]
}